<?xml version="1.0" encoding="UTF-8"?>
<svg xmlns="http://www.w3.org/2000/svg" xmlns:xlink="http://www.w3.org/1999/xlink" width="40pt" height="40pt" viewBox="0 0 40 40" version="1.1">
<g id="surface1">
<path style=" stroke:none;fill-rule:nonzero;fill:rgb(0%,0%,0%);fill-opacity:1;" d="M 36.90625 4.382812 L 33.113281 4.382812 L 33.113281 2.464844 C 33.113281 2.140625 32.847656 1.878906 32.523438 1.878906 C 32.199219 1.878906 31.9375 2.140625 31.9375 2.464844 L 31.9375 4.382812 L 26.847656 4.382812 L 26.847656 2.464844 C 26.847656 2.140625 26.585938 1.878906 26.261719 1.878906 C 25.9375 1.878906 25.675781 2.140625 25.675781 2.464844 L 25.675781 4.382812 L 20.585938 4.382812 L 20.585938 2.464844 C 20.585938 2.140625 20.324219 1.878906 20 1.878906 C 19.675781 1.878906 19.414062 2.140625 19.414062 2.464844 L 19.414062 4.382812 L 14.324219 4.382812 L 14.324219 2.464844 C 14.324219 2.140625 14.0625 1.878906 13.738281 1.878906 C 13.414062 1.878906 13.152344 2.140625 13.152344 2.464844 L 13.152344 4.382812 L 8.0625 4.382812 L 8.0625 2.464844 C 8.0625 2.140625 7.800781 1.878906 7.476562 1.878906 C 7.152344 1.878906 6.886719 2.140625 6.886719 2.464844 L 6.886719 4.382812 L 3.09375 4.382812 C 1.386719 4.382812 0 5.769531 0 7.476562 L 0 35.03125 C 0 36.734375 1.386719 38.121094 3.09375 38.121094 L 36.90625 38.121094 C 38.613281 38.121094 40 36.734375 40 35.03125 L 40 7.476562 C 40 5.769531 38.613281 4.382812 36.90625 4.382812 Z M 38.824219 35.03125 C 38.824219 36.085938 37.964844 36.945312 36.90625 36.945312 L 3.09375 36.945312 C 2.035156 36.945312 1.175781 36.085938 1.175781 35.03125 L 1.175781 7.476562 C 1.175781 6.417969 2.035156 5.558594 3.09375 5.558594 L 6.886719 5.558594 L 6.886719 7.476562 C 6.886719 7.800781 7.152344 8.0625 7.476562 8.0625 C 7.800781 8.0625 8.0625 7.800781 8.0625 7.476562 L 8.0625 5.558594 L 13.152344 5.558594 L 13.152344 7.476562 C 13.152344 7.800781 13.414062 8.0625 13.738281 8.0625 C 14.0625 8.0625 14.324219 7.800781 14.324219 7.476562 L 14.324219 5.558594 L 19.414062 5.558594 L 19.414062 7.476562 C 19.414062 7.800781 19.675781 8.0625 20 8.0625 C 20.324219 8.0625 20.585938 7.800781 20.585938 7.476562 L 20.585938 5.558594 L 25.675781 5.558594 L 25.675781 7.476562 C 25.675781 7.800781 25.9375 8.0625 26.261719 8.0625 C 26.585938 8.0625 26.847656 7.800781 26.847656 7.476562 L 26.847656 5.558594 L 31.9375 5.558594 L 31.9375 7.476562 C 31.9375 7.800781 32.199219 8.0625 32.523438 8.0625 C 32.847656 8.0625 33.113281 7.800781 33.113281 7.476562 L 33.113281 5.558594 L 36.90625 5.558594 C 37.964844 5.558594 38.824219 6.417969 38.824219 7.476562 Z M 38.824219 35.03125 "/>
<path style=" stroke:none;fill-rule:nonzero;fill:rgb(0%,0%,0%);fill-opacity:1;" d="M 36.90625 10.644531 L 3.09375 10.644531 C 2.769531 10.644531 2.503906 10.910156 2.503906 11.234375 C 2.503906 11.558594 2.769531 11.820312 3.09375 11.820312 L 36.90625 11.820312 C 37.230469 11.820312 37.496094 11.558594 37.496094 11.234375 C 37.496094 10.910156 37.230469 10.644531 36.90625 10.644531 Z M 36.90625 10.644531 "/>
<path style=" stroke:none;fill-rule:nonzero;fill:rgb(0%,0%,0%);fill-opacity:1;" d="M 30.230469 17.707031 L 17.964844 29.972656 C 17.707031 30.230469 17.285156 30.230469 17.023438 29.972656 L 11.023438 23.96875 C 10.792969 23.738281 10.421875 23.738281 10.191406 23.96875 C 9.960938 24.199219 9.960938 24.570312 10.191406 24.796875 L 16.195312 30.800781 C 16.542969 31.148438 17.003906 31.339844 17.496094 31.339844 C 17.988281 31.339844 18.449219 31.148438 18.796875 30.800781 L 31.0625 18.535156 C 31.289062 18.308594 31.289062 17.933594 31.0625 17.707031 C 30.832031 17.476562 30.460938 17.476562 30.230469 17.707031 Z M 30.230469 17.707031 "/>
</g>
</svg>
