<?xml version="1.0" encoding="UTF-8"?>
<svg xmlns="http://www.w3.org/2000/svg" xmlns:xlink="http://www.w3.org/1999/xlink" width="40pt" height="40pt" viewBox="0 0 40 40" version="1.1">
<g id="surface1">
<path style=" stroke:none;fill-rule:nonzero;fill:rgb(0%,0%,0%);fill-opacity:1;" d="M 26.898438 26.828125 C 26.832031 26.886719 25.332031 28.214844 25.332031 30.667969 L 25.332031 34 C 25.332031 34.367188 25.632812 34.667969 26 34.667969 C 26.367188 34.667969 26.667969 34.367188 26.667969 34 L 26.667969 30.667969 C 26.667969 28.84375 27.730469 27.875 27.804688 27.804688 L 32.472656 23.136719 C 32.734375 22.875 33.066406 22.71875 33.402344 22.707031 C 33.742188 22.691406 34.03125 22.816406 34.277344 23.058594 C 34.519531 23.300781 34.640625 23.601562 34.625 23.933594 C 34.613281 24.265625 34.460938 24.597656 34.195312 24.863281 L 30.863281 28.195312 C 30.601562 28.457031 30.601562 28.878906 30.863281 29.136719 C 31.121094 29.398438 31.542969 29.398438 31.804688 29.136719 L 35.136719 25.804688 C 35.640625 25.304688 35.929688 24.65625 35.960938 23.988281 C 35.988281 23.285156 35.726562 22.621094 35.21875 22.113281 C 34.710938 21.609375 34.054688 21.347656 33.347656 21.375 C 32.675781 21.402344 32.03125 21.691406 31.527344 22.195312 Z M 26.898438 26.828125 "/>
<path style=" stroke:none;fill-rule:nonzero;fill:rgb(0%,0%,0%);fill-opacity:1;" d="M 7.332031 34 C 7.503906 34 7.675781 33.933594 7.804688 33.804688 C 8.066406 33.542969 8.066406 33.121094 7.804688 32.863281 L 2.433594 27.492188 C 2.390625 27.453125 1.332031 26.511719 1.332031 24.667969 L 1.332031 14.667969 C 1.332031 13.929688 1.929688 13.332031 2.667969 13.332031 C 3.402344 13.332031 4 13.929688 4 14.667969 L 4 19.945312 C 4 20.3125 4.296875 20.609375 4.667969 20.609375 C 5.035156 20.609375 5.332031 20.3125 5.332031 19.945312 L 5.332031 14.667969 C 5.332031 13.195312 4.136719 12 2.667969 12 C 1.195312 12 0 13.195312 0 14.667969 L 0 24.667969 C 0 27.15625 1.507812 28.457031 1.527344 28.472656 L 6.863281 33.804688 C 6.992188 33.933594 7.164062 34 7.332031 34 Z M 7.332031 34 "/>
<path style=" stroke:none;fill-rule:nonzero;fill:rgb(0%,0%,0%);fill-opacity:1;" d="M 4.039062 23.988281 C 4.070312 24.65625 4.359375 25.304688 4.863281 25.804688 L 8.195312 29.136719 C 8.457031 29.398438 8.878906 29.398438 9.136719 29.136719 C 9.398438 28.878906 9.398438 28.457031 9.136719 28.195312 L 5.804688 24.859375 C 5.539062 24.597656 5.386719 24.265625 5.375 23.933594 C 5.359375 23.601562 5.480469 23.300781 5.722656 23.058594 C 5.96875 22.816406 6.261719 22.691406 6.597656 22.707031 C 6.933594 22.71875 7.265625 22.875 7.527344 23.136719 L 12.226562 27.835938 C 12.269531 27.875 13.332031 28.84375 13.332031 30.667969 L 13.332031 34 C 13.332031 34.367188 13.632812 34.667969 14 34.667969 C 14.367188 34.667969 14.667969 34.367188 14.667969 34 L 14.667969 30.667969 C 14.667969 28.214844 13.167969 26.886719 13.136719 26.863281 L 8.472656 22.195312 C 7.96875 21.691406 7.324219 21.402344 6.652344 21.375 C 5.941406 21.347656 5.289062 21.609375 4.78125 22.113281 C 4.273438 22.621094 4.011719 23.285156 4.039062 23.988281 Z M 4.039062 23.988281 "/>
<path style=" stroke:none;fill-rule:nonzero;fill:rgb(0%,0%,0%);fill-opacity:1;" d="M 20 8.667969 C 20.734375 8.667969 21.332031 9.265625 21.332031 10 C 21.332031 10.367188 21.632812 10.667969 22 10.667969 C 22.367188 10.667969 22.667969 10.367188 22.667969 10 C 22.667969 8.761719 21.8125 7.726562 20.667969 7.429688 L 20.667969 7.332031 C 20.667969 6.964844 20.367188 6.667969 20 6.667969 C 19.632812 6.667969 19.332031 6.964844 19.332031 7.332031 L 19.332031 7.429688 C 18.1875 7.726562 17.332031 8.761719 17.332031 10 C 17.332031 11.46875 18.53125 12.667969 20 12.667969 C 20.734375 12.667969 21.332031 13.265625 21.332031 14 C 21.332031 14.734375 20.734375 15.332031 20 15.332031 C 19.265625 15.332031 18.667969 14.734375 18.667969 14 C 18.667969 13.632812 18.367188 13.332031 18 13.332031 C 17.632812 13.332031 17.332031 13.632812 17.332031 14 C 17.332031 15.238281 18.1875 16.273438 19.332031 16.570312 L 19.332031 16.667969 C 19.332031 17.035156 19.632812 17.332031 20 17.332031 C 20.367188 17.332031 20.667969 17.035156 20.667969 16.667969 L 20.667969 16.570312 C 21.8125 16.273438 22.667969 15.238281 22.667969 14 C 22.667969 12.53125 21.46875 11.332031 20 11.332031 C 19.265625 11.332031 18.667969 10.734375 18.667969 10 C 18.667969 9.265625 19.265625 8.667969 20 8.667969 Z M 20 8.667969 "/>
<path style=" stroke:none;fill-rule:nonzero;fill:rgb(0%,0%,0%);fill-opacity:1;" d="M 15.332031 36 L 4.667969 36 C 4.296875 36 4 36.296875 4 36.667969 L 4 39.332031 C 4 39.703125 4.296875 40 4.667969 40 C 5.035156 40 5.332031 39.703125 5.332031 39.332031 L 5.332031 37.332031 L 14.667969 37.332031 L 14.667969 39.332031 C 14.667969 39.703125 14.964844 40 15.332031 40 C 15.703125 40 16 39.703125 16 39.332031 L 16 36.667969 C 16 36.296875 15.703125 36 15.332031 36 Z M 15.332031 36 "/>
<path style=" stroke:none;fill-rule:nonzero;fill:rgb(0%,0%,0%);fill-opacity:1;" d="M 35.332031 36 L 24.667969 36 C 24.296875 36 24 36.296875 24 36.667969 L 24 39.332031 C 24 39.703125 24.296875 40 24.667969 40 C 25.035156 40 25.332031 39.703125 25.332031 39.332031 L 25.332031 37.332031 L 34.667969 37.332031 L 34.667969 39.332031 C 34.667969 39.703125 34.964844 40 35.332031 40 C 35.703125 40 36 39.703125 36 39.332031 L 36 36.667969 C 36 36.296875 35.703125 36 35.332031 36 Z M 35.332031 36 "/>
<path style=" stroke:none;fill-rule:nonzero;fill:rgb(0%,0%,0%);fill-opacity:1;" d="M 20 2.667969 C 14.851562 2.667969 10.667969 6.851562 10.667969 12 C 10.667969 17.148438 14.851562 21.332031 20 21.332031 C 25.148438 21.332031 29.332031 17.148438 29.332031 12 C 29.332031 6.851562 25.148438 2.667969 20 2.667969 Z M 20 20 C 15.589844 20 12 16.410156 12 12 C 12 7.589844 15.589844 4 20 4 C 24.410156 4 28 7.589844 28 12 C 28 16.410156 24.410156 20 20 20 Z M 20 20 "/>
<path style=" stroke:none;fill-rule:nonzero;fill:rgb(0%,0%,0%);fill-opacity:1;" d="M 37.332031 12 C 35.863281 12 34.667969 13.195312 34.667969 14.667969 L 34.667969 19.945312 C 34.667969 20.3125 34.964844 20.609375 35.332031 20.609375 C 35.703125 20.609375 36 20.3125 36 19.945312 L 36 14.667969 C 36 13.929688 36.597656 13.332031 37.332031 13.332031 C 38.070312 13.332031 38.667969 13.929688 38.667969 14.667969 L 38.667969 24.667969 C 38.667969 26.511719 37.613281 27.453125 37.527344 27.527344 L 32.195312 32.863281 C 31.933594 33.121094 31.933594 33.542969 32.195312 33.804688 C 32.324219 33.933594 32.496094 34 32.667969 34 C 32.835938 34 33.007812 33.933594 33.136719 33.804688 L 38.429688 28.507812 C 38.492188 28.457031 40 27.15625 40 24.667969 L 40 14.667969 C 40 13.195312 38.804688 12 37.332031 12 Z M 37.332031 12 "/>
<path style=" stroke:none;fill-rule:nonzero;fill:rgb(0%,0%,0%);fill-opacity:1;" d="M 32 12 C 32 5.382812 26.617188 0 20 0 C 13.382812 0 8 5.382812 8 12 C 8 18.617188 13.382812 24 20 24 C 26.617188 24 32 18.617188 32 12 Z M 20 22.667969 C 14.117188 22.667969 9.332031 17.882812 9.332031 12 C 9.332031 6.117188 14.117188 1.332031 20 1.332031 C 25.882812 1.332031 30.667969 6.117188 30.667969 12 C 30.667969 17.882812 25.882812 22.667969 20 22.667969 Z M 20 22.667969 "/>
</g>
</svg>
