<?xml version="1.0" encoding="UTF-8"?>
<svg xmlns="http://www.w3.org/2000/svg" xmlns:xlink="http://www.w3.org/1999/xlink" width="40pt" height="40pt" viewBox="0 0 40 40" version="1.1">
<g id="surface1">
<path style=" stroke:none;fill-rule:nonzero;fill:rgb(0%,0%,0%);fill-opacity:1;" d="M 39.257812 7.777344 L 17.433594 7.777344 L 14.691406 3.664062 C 14.550781 3.457031 14.320312 3.332031 14.074219 3.332031 L 0.742188 3.332031 C 0.332031 3.332031 0 3.664062 0 4.074219 L 0 32.964844 C 0 35.007812 1.660156 36.667969 3.699219 36.667969 L 36.300781 36.667969 C 38.339844 36.667969 40 35.007812 40 32.964844 L 40 8.519531 C 40 8.109375 39.667969 7.777344 39.257812 7.777344 Z M 38.519531 10.742188 L 1.480469 10.742188 L 1.480469 9.257812 L 38.519531 9.257812 Z M 1.480469 4.816406 L 13.679688 4.816406 L 15.652344 7.777344 L 1.480469 7.777344 Z M 38.519531 32.964844 C 38.519531 34.1875 37.523438 35.183594 36.300781 35.183594 L 3.699219 35.183594 C 2.476562 35.183594 1.480469 34.1875 1.480469 32.964844 L 1.480469 12.222656 L 38.519531 12.222656 Z M 38.519531 32.964844 "/>
<path style=" stroke:none;fill-rule:nonzero;fill:rgb(0%,0%,0%);fill-opacity:1;" d="M 20 32.964844 C 24.902344 32.964844 28.890625 28.976562 28.890625 24.074219 C 28.890625 19.171875 24.902344 15.183594 20 15.183594 C 15.097656 15.183594 11.109375 19.171875 11.109375 24.074219 C 11.109375 28.976562 15.097656 32.964844 20 32.964844 Z M 20 16.667969 C 24.085938 16.667969 27.40625 19.988281 27.40625 24.074219 C 27.40625 28.160156 24.085938 31.480469 20 31.480469 C 15.914062 31.480469 12.59375 28.160156 12.59375 24.074219 C 12.59375 19.988281 15.914062 16.667969 20 16.667969 Z M 20 16.667969 "/>
<path style=" stroke:none;fill-rule:nonzero;fill:rgb(0%,0%,0%);fill-opacity:1;" d="M 19.183594 28.742188 C 19.3125 28.835938 19.46875 28.890625 19.628906 28.890625 C 19.679688 28.890625 19.730469 28.882812 19.777344 28.875 C 19.984375 28.832031 20.164062 28.703125 20.269531 28.519531 L 24.34375 21.480469 C 24.550781 21.128906 24.429688 20.675781 24.074219 20.46875 C 23.722656 20.261719 23.265625 20.386719 23.0625 20.738281 L 19.40625 27.054688 L 17.109375 25.332031 C 16.785156 25.089844 16.320312 25.152344 16.074219 25.480469 C 15.828125 25.808594 15.894531 26.273438 16.222656 26.519531 Z M 19.183594 28.742188 "/>
</g>
</svg>
