<?xml version="1.0" encoding="UTF-8"?>
<svg xmlns="http://www.w3.org/2000/svg" xmlns:xlink="http://www.w3.org/1999/xlink" width="40pt" height="40pt" viewBox="0 0 40 40" version="1.1">
<g id="surface1">
<path style=" stroke:none;fill-rule:nonzero;fill:rgb(0%,0%,0%);fill-opacity:1;" d="M 24.328125 14.667969 L 7.660156 14.667969 C 7.292969 14.667969 6.992188 14.964844 6.992188 15.332031 C 6.992188 15.703125 7.292969 16 7.660156 16 L 24.328125 16 C 24.695312 16 24.992188 15.703125 24.992188 15.332031 C 24.992188 14.964844 24.695312 14.667969 24.328125 14.667969 Z M 24.328125 14.667969 "/>
<path style=" stroke:none;fill-rule:nonzero;fill:rgb(0%,0%,0%);fill-opacity:1;" d="M 7.660156 10.667969 L 14.328125 10.667969 C 14.695312 10.667969 14.992188 10.367188 14.992188 10 C 14.992188 9.632812 14.695312 9.332031 14.328125 9.332031 L 7.660156 9.332031 C 7.292969 9.332031 6.992188 9.632812 6.992188 10 C 6.992188 10.367188 7.292969 10.667969 7.660156 10.667969 Z M 7.660156 10.667969 "/>
<path style=" stroke:none;fill-rule:nonzero;fill:rgb(0%,0%,0%);fill-opacity:1;" d="M 24.992188 20.667969 C 24.992188 20.296875 24.695312 20 24.328125 20 L 7.660156 20 C 7.292969 20 6.992188 20.296875 6.992188 20.667969 C 6.992188 21.035156 7.292969 21.332031 7.660156 21.332031 L 24.328125 21.332031 C 24.695312 21.332031 24.992188 21.035156 24.992188 20.667969 Z M 24.992188 20.667969 "/>
<path style=" stroke:none;fill-rule:nonzero;fill:rgb(0%,0%,0%);fill-opacity:1;" d="M 19.660156 26 C 19.660156 25.632812 19.363281 25.332031 18.992188 25.332031 L 7.660156 25.332031 C 7.292969 25.332031 6.992188 25.632812 6.992188 26 C 6.992188 26.367188 7.292969 26.667969 7.660156 26.667969 L 18.992188 26.667969 C 19.363281 26.667969 19.660156 26.367188 19.660156 26 Z M 19.660156 26 "/>
<path style=" stroke:none;fill-rule:nonzero;fill:rgb(0%,0%,0%);fill-opacity:1;" d="M 7.660156 30.667969 C 7.292969 30.667969 6.992188 30.964844 6.992188 31.332031 C 6.992188 31.703125 7.292969 32 7.660156 32 L 16.992188 32 C 17.363281 32 17.660156 31.703125 17.660156 31.332031 C 17.660156 30.964844 17.363281 30.667969 16.992188 30.667969 Z M 7.660156 30.667969 "/>
<path style=" stroke:none;fill-rule:nonzero;fill:rgb(0%,0%,0%);fill-opacity:1;" d="M 1.660156 1.332031 L 20.992188 1.332031 L 20.992188 10.667969 L 30.328125 10.667969 L 30.328125 20.667969 L 31.660156 20.667969 L 31.660156 9.722656 L 21.9375 0 L 0.328125 0 L 0.328125 40 L 24.992188 40 L 24.992188 38.667969 L 1.660156 38.667969 Z M 22.328125 2.277344 L 29.382812 9.332031 L 22.328125 9.332031 Z M 22.328125 2.277344 "/>
<path style=" stroke:none;fill-rule:nonzero;fill:rgb(0%,0%,0%);fill-opacity:1;" d="M 39.488281 38.859375 L 35.507812 34.699219 C 36.671875 33.417969 37.386719 31.726562 37.386719 29.863281 C 37.386719 25.894531 34.160156 22.667969 30.191406 22.667969 C 26.222656 22.667969 22.992188 25.894531 22.992188 29.863281 C 22.992188 33.832031 26.222656 37.0625 30.191406 37.0625 C 31.820312 37.0625 33.316406 36.511719 34.523438 35.597656 L 38.523438 39.78125 C 38.65625 39.917969 38.832031 39.988281 39.007812 39.988281 C 39.171875 39.988281 39.339844 39.925781 39.46875 39.800781 C 39.734375 39.546875 39.742188 39.125 39.488281 38.859375 Z M 24.328125 29.863281 C 24.328125 26.628906 26.957031 24 30.191406 24 C 33.425781 24 36.054688 26.628906 36.054688 29.863281 C 36.054688 33.097656 33.425781 35.726562 30.191406 35.726562 C 26.957031 35.726562 24.328125 33.097656 24.328125 29.863281 Z M 24.328125 29.863281 "/>
</g>
</svg>
