<?xml version="1.0" encoding="UTF-8"?>
<svg xmlns="http://www.w3.org/2000/svg" xmlns:xlink="http://www.w3.org/1999/xlink" width="40pt" height="40pt" viewBox="0 0 40 40" version="1.1">
<g id="surface1">
<path style=" stroke:none;fill-rule:nonzero;fill:rgb(0%,0%,0%);fill-opacity:1;" d="M 37.941406 15.554688 L 34.199219 15.554688 C 33.597656 15.554688 33.101562 15.222656 32.871094 14.667969 C 32.640625 14.113281 32.757812 13.527344 33.183594 13.101562 L 35.828125 10.457031 C 36.21875 10.070312 36.429688 9.550781 36.429688 9 C 36.429688 8.449219 36.21875 7.933594 35.828125 7.542969 L 32.457031 4.171875 C 31.679688 3.394531 30.320312 3.394531 29.542969 4.171875 L 26.898438 6.816406 C 26.472656 7.242188 25.886719 7.359375 25.332031 7.128906 C 24.777344 6.898438 24.445312 6.402344 24.445312 5.800781 L 24.445312 2.058594 C 24.445312 0.921875 23.519531 0 22.386719 0 L 17.613281 0 C 16.480469 0 15.554688 0.921875 15.554688 2.058594 L 15.554688 5.800781 C 15.554688 6.402344 15.222656 6.898438 14.667969 7.128906 C 14.113281 7.359375 13.527344 7.242188 13.101562 6.816406 L 10.457031 4.171875 C 9.679688 3.394531 8.320312 3.394531 7.542969 4.171875 L 4.171875 7.542969 C 3.78125 7.933594 3.570312 8.449219 3.570312 9 C 3.570312 9.550781 3.78125 10.066406 4.171875 10.457031 L 6.816406 13.101562 C 7.242188 13.527344 7.359375 14.113281 7.128906 14.667969 C 6.898438 15.222656 6.402344 15.554688 5.800781 15.554688 L 2.058594 15.554688 C 0.921875 15.554688 0 16.480469 0 17.613281 L 0 22.382812 C 0 23.519531 0.921875 24.445312 2.058594 24.445312 L 5.800781 24.445312 C 6.402344 24.445312 6.898438 24.777344 7.128906 25.332031 C 7.359375 25.886719 7.242188 26.472656 6.816406 26.898438 L 4.171875 29.542969 C 3.78125 29.929688 3.570312 30.449219 3.570312 31 C 3.570312 31.550781 3.78125 32.066406 4.171875 32.457031 L 7.542969 35.828125 C 8.324219 36.605469 9.679688 36.609375 10.457031 35.828125 L 13.101562 33.183594 C 13.527344 32.757812 14.113281 32.640625 14.667969 32.871094 C 15.222656 33.101562 15.554688 33.597656 15.554688 34.199219 L 15.554688 37.941406 C 15.554688 39.078125 16.480469 40 17.613281 40 L 22.382812 40 C 23.519531 40 24.445312 39.078125 24.445312 37.941406 L 24.445312 34.199219 C 24.445312 33.597656 24.773438 33.101562 25.332031 32.871094 C 25.886719 32.640625 26.472656 32.757812 26.894531 33.183594 L 29.542969 35.828125 C 30.320312 36.605469 31.675781 36.605469 32.453125 35.828125 L 35.828125 32.457031 C 36.214844 32.066406 36.429688 31.550781 36.429688 31 C 36.429688 30.449219 36.214844 29.933594 35.828125 29.542969 L 33.179688 26.898438 C 32.757812 26.472656 32.640625 25.886719 32.871094 25.332031 C 33.101562 24.777344 33.597656 24.445312 34.199219 24.445312 L 37.941406 24.445312 C 39.078125 24.445312 40 23.519531 40 22.386719 L 40 17.613281 C 40 16.480469 39.078125 15.554688 37.941406 15.554688 Z M 38.519531 22.386719 C 38.519531 22.703125 38.257812 22.964844 37.941406 22.964844 L 34.199219 22.964844 C 32.996094 22.964844 31.960938 23.652344 31.503906 24.765625 C 31.042969 25.875 31.285156 27.09375 32.136719 27.945312 L 34.78125 30.589844 C 35.007812 30.816406 35.007812 31.183594 34.78125 31.40625 L 31.40625 34.78125 C 31.183594 35.007812 30.816406 35.007812 30.589844 34.78125 L 27.945312 32.136719 C 27.09375 31.285156 25.875 31.042969 24.765625 31.503906 C 23.652344 31.960938 22.964844 32.996094 22.964844 34.199219 L 22.964844 37.941406 C 22.964844 38.257812 22.703125 38.519531 22.386719 38.519531 L 17.613281 38.519531 C 17.296875 38.519531 17.035156 38.257812 17.035156 37.941406 L 17.035156 34.199219 C 17.035156 32.996094 16.347656 31.960938 15.234375 31.503906 C 14.863281 31.347656 14.480469 31.273438 14.101562 31.273438 C 13.347656 31.273438 12.621094 31.566406 12.054688 32.132812 L 9.410156 34.78125 C 9.183594 35.007812 8.816406 35.003906 8.59375 34.78125 L 5.21875 31.40625 C 4.992188 31.179688 4.992188 30.816406 5.21875 30.589844 L 7.863281 27.945312 C 8.714844 27.09375 8.957031 25.875 8.496094 24.765625 C 8.039062 23.652344 7.003906 22.964844 5.800781 22.964844 L 2.058594 22.964844 C 1.742188 22.964844 1.480469 22.703125 1.480469 22.386719 L 1.480469 17.613281 C 1.480469 17.296875 1.742188 17.035156 2.058594 17.035156 L 5.800781 17.035156 C 7.003906 17.035156 8.039062 16.347656 8.496094 15.234375 C 8.957031 14.125 8.714844 12.90625 7.863281 12.054688 L 5.21875 9.410156 C 4.992188 9.183594 4.992188 8.816406 5.21875 8.59375 L 8.59375 5.21875 C 8.816406 4.992188 9.183594 4.992188 9.410156 5.21875 L 12.054688 7.863281 C 12.90625 8.714844 14.121094 8.957031 15.234375 8.496094 C 16.347656 8.039062 17.035156 7.003906 17.035156 5.800781 L 17.035156 2.058594 C 17.035156 1.742188 17.296875 1.480469 17.613281 1.480469 L 22.382812 1.480469 C 22.703125 1.480469 22.964844 1.742188 22.964844 2.058594 L 22.964844 5.800781 C 22.964844 7.003906 23.652344 8.039062 24.765625 8.496094 C 25.878906 8.957031 27.09375 8.714844 27.945312 7.863281 L 30.589844 5.21875 C 30.816406 4.992188 31.183594 4.992188 31.40625 5.21875 L 34.78125 8.59375 C 35.007812 8.820312 35.007812 9.183594 34.78125 9.410156 L 32.136719 12.054688 C 31.285156 12.90625 31.042969 14.125 31.503906 15.234375 C 31.960938 16.347656 32.996094 17.039062 34.199219 17.039062 L 37.941406 17.039062 C 38.257812 17.035156 38.519531 17.296875 38.519531 17.613281 Z M 38.519531 22.386719 "/>
<path style=" stroke:none;fill-rule:nonzero;fill:rgb(0%,0%,0%);fill-opacity:1;" d="M 20 13.332031 C 16.324219 13.332031 13.332031 16.324219 13.332031 20 C 13.332031 23.675781 16.324219 26.667969 20 26.667969 C 23.675781 26.667969 26.667969 23.675781 26.667969 20 C 26.667969 16.324219 23.675781 13.332031 20 13.332031 Z M 20 25.183594 C 17.140625 25.183594 14.816406 22.859375 14.816406 20 C 14.816406 17.140625 17.140625 14.816406 20 14.816406 C 22.859375 14.816406 25.183594 17.140625 25.183594 20 C 25.183594 22.859375 22.859375 25.183594 20 25.183594 Z M 20 25.183594 "/>
</g>
</svg>
